<svg width="64" height="64" viewBox="0 0 64 64" fill="none" xmlns="http://www.w3.org/2000/svg">
<path d="M62.9379 57.9459L51.4518 46.5455C60.4204 35.0663 59.4763 18.7125 49.1703 8.41278C43.7419 2.98771 36.504 0 28.7941 0C21.0842 0 13.8463 2.98771 8.41795 8.41278C2.98955 13.8378 0 21.0713 0 28.7764C0 36.4816 2.98955 43.715 8.41795 49.1401C13.8463 54.5651 21.0842 57.5528 28.7941 57.5528C35.1666 57.5528 41.4604 55.43 46.4954 51.4201L57.9029 62.9779C58.6109 63.6855 59.4763 64 60.4204 64C61.3645 64 62.2299 63.6069 62.9379 62.9779C64.354 61.6413 64.354 59.3612 62.9379 57.9459ZM50.5077 28.7764C50.5077 34.5946 48.2262 40.0197 44.1352 44.1081C40.0443 48.1966 34.5372 50.4767 28.7941 50.4767C23.051 50.4767 17.5439 48.1966 13.453 44.1081C9.36202 40.0197 7.08052 34.516 7.08052 28.7764C7.08052 22.9582 9.36202 17.5332 13.453 13.4447C17.5439 9.35627 23.051 7.07617 28.7941 7.07617C34.6159 7.07617 40.0443 9.35627 44.1352 13.4447C48.2262 17.5332 50.5077 22.9582 50.5077 28.7764Z" fill="#D7DADD"/>
</svg>
